%YAML 1.1
%TAG !u! tag:unity3d.com,2011:
--- !u!1 &137004
GameObject:
  m_ObjectHideFlags: 0
  m_PrefabParentObject: {fileID: 0}
  m_PrefabInternal: {fileID: 100100000}
  serializedVersion: 4
  m_Component:
  - 4: {fileID: 477156}
  - 114: {fileID: 11419536}
  m_Layer: 0
  m_Name: Pool Manager
  m_TagString: Untagged
  m_Icon: {fileID: 0}
  m_NavMeshLayer: 0
  m_StaticEditorFlags: 0
  m_IsActive: 1
--- !u!4 &477156
Transform:
  m_ObjectHideFlags: 1
  m_PrefabParentObject: {fileID: 0}
  m_PrefabInternal: {fileID: 100100000}
  m_GameObject: {fileID: 137004}
  m_LocalRotation: {x: 0, y: 0, z: 0, w: 1}
  m_LocalPosition: {x: 0, y: 0, z: 0}
  m_LocalScale: {x: 1, y: 1, z: 1}
  m_Children: []
  m_Father: {fileID: 0}
  m_RootOrder: 0
--- !u!114 &11419536
MonoBehaviour:
  m_ObjectHideFlags: 1
  m_PrefabParentObject: {fileID: 0}
  m_PrefabInternal: {fileID: 100100000}
  m_GameObject: {fileID: 137004}
  m_Enabled: 1
  m_EditorHideFlags: 0
  m_Script: {fileID: 11500000, guid: 439f7aa92cd295f4fad95584dbb5429b, type: 3}
  m_Name: 
  m_EditorClassIdentifier: 
  names:
  - Bullet
  - Bloodsplatter
  - MGBullet
  pooledObjects:
  - {fileID: 158862, guid: 9163274805c702045b4add1f0b77eca7, type: 2}
  - {fileID: 102344, guid: cb7244145cc6dfa439301f89676dd036, type: 2}
  - {fileID: 158862, guid: 9163274805c702045b4add1f0b77eca7, type: 2}
  poolAmounts: 04000000320000000a000000
  tempList: []
--- !u!1001 &100100000
Prefab:
  m_ObjectHideFlags: 1
  serializedVersion: 2
  m_Modification:
    m_TransformParent: {fileID: 0}
    m_Modifications: []
    m_RemovedComponents: []
  m_ParentPrefab: {fileID: 0}
  m_RootGameObject: {fileID: 137004}
  m_IsPrefabParent: 1
